{
    "transport": {
        "http_port": "3009"
    },
    "aws": {
        "region": "ap-south-1",
        "credential": {
            "credential_type": "SharedConfig",
            "profile_name": "DidStage"
        },
        "s3": {
            "common_upload_bucket": "dev.lts.trueschoolapps.com",
            "put_req_expiry_signer_in_sec": 3600,
            "sing_content_bucket": "cdn.learntosing.content",
            "public_content_bucket": "stage.cdn.learntosing.content",
            "sing_content_bucket_prefix_path": "MediaMeta/sing",
            "public_content_bucket_prefix_path": "public"
        }
    },
    "logging": {
        "file_path": "log/log.txt"
    },
    "mode": "Dev"
}
