{
    "logging": {
        "file_path": "log/log.txt"
    },
    "transport":{
        "http_port":"3022"
    },
    "sing_sorting_schedule": "0 0 0 * * 0",
    "sing_sorting_data_since": 604800000000000,
    "game_status_update_sorting_schedule": "0 * * * * *",
    "resume_persist_user_answer_schedule": "*/10 * * * *",
    "resume_persist_user_vote_schedule": "*/10 * * * *",
    "named_leaderboard_schedule": "0 0 * * *",
    "social_mention_update_schedule": "0 */6 * * *",
    "upload_user_data_schedule":"1 1 1 1 1",
    "mode": "Dev"
}

