{
    "transport": {
        "http_port": "3025"
    },
    "mongo": {
        "credential": {
            "user_name": "",
            "password": ""
        },
        "address": "localhost:27017",
        "db_name": "LiveQuiz"
    },
    "aws": {
        "region": "ap-south-1",
        "credential": {
            "credential_type": "SharedConfig",
            "profile_name": "ZEEStage"
        },
        "s3": {
            "question_bucket": "did.content",
            "question_bucket_prefix_url": "public"
        },
        "cloud_front": {
            "question_domain": "https://d2b9fdqgngvvl9.cloudfront.net/"
        }
    },
    "logging": {
        "file_path": "log/log.txt"
    },
   	"redis_cluster_nodes": ["localhost:30001"],
	"nats_address": "127.0.0.1",
    "leaderboard_page_url_prefix": "http://app-zee5saregamapa.sensibol.com/game/#/predictscoreleaderboard/",
    "default_feedback": {
		"title": "Well played!",
		"subtitle": "That was a great game!",
		"description": ""
	},
	"feedback": [
		{
			"min_score": 0,
			"max_score": 10,
			"title": "Tough luck!",
			"subtitle": "None of your guesses matched our judges's score!",
			"description": "None of your predictions matched the judges! "
		},
		{
			"min_score": 10,
			"max_score": 20,
			"title": "Oh No!",
			"subtitle": "Looks like that was a hard game!",
			"description": "You need to watch to more dance videos to improve your performance."
		},
		{
			"min_score": 20,
			"max_score": 30,
			"title": "Oops!",
			"subtitle": "That's a very low match with our judges!",
			"description": "You need to watch to more dance videos to improve your performance."
		},
		{
			"min_score": 30,
			"max_score": 40,
			"title": "Needs work!",
			"subtitle": "Plenty of scope for improvement",
			"description": "You need to watch to more dance videos to improve your performance."
		},
		{
			"min_score": 40,
			"max_score": 50,
			"title": "Nice try!",
			"subtitle": "You need to watch more carefully",
			"description": "Maybe watch some of our previous episodes to improve your skill at score prediction"
		},
		{
			"min_score": 50,
			"max_score": 60,
			"title": "Not bad!",
			"subtitle": "You're going strong. Keep trying!",
			"description": "50% is satisfactory. You can do better."
		},
		{
			"min_score": 60,
			"max_score": 70,
			"title": "Quite decent!",
			"subtitle": "A focused approach can help you do better",
			"description": "A decent performance. With a little careful attention you can do better."
		},
		{
			"min_score": 70,
			"max_score": 80,
			"title": "Good going!",
			"subtitle": "That was a great game!",
			"description": "Good going! You are on your way to becoming a full-time judge"
		},
		{
			"min_score": 80,
			"max_score": 90,
			"title": "Well played!",
			"subtitle": "You are on your way to that perfect score",
			"description": "Well done! That was a great performance!"
		},
		{
			"min_score": 90,
			"max_score": 100,
			"title": "Woohoo!",
			"subtitle": "Thats almost a perfect score!",
			"description": "Thats almost a perfect score."
		},
		{
			"min_score": 100,
			"max_score": 105,
			"title": "Incredible!",
			"subtitle": "You and our judges think alike!",
			"description": "You are a born judge of dancing! We should get you on the show!"
		}
	],
    "mode": "Dev"
}
